%YAML 1.1
%TAG !u! tag:unity3d.com,2011:
--- !u!74 &7400000
AnimationClip:
  m_ObjectHideFlags: 0
  m_CorrespondingSourceObject: {fileID: 0}
  m_PrefabInstance: {fileID: 0}
  m_PrefabAsset: {fileID: 0}
  m_Name: ChatAnimator
  serializedVersion: 6
  m_Legacy: 0
  m_Compressed: 0
  m_UseHighQualityCurve: 1
  m_RotationCurves: []
  m_CompressedRotationCurves: []
  m_EulerCurves: []
  m_PositionCurves: []
  m_ScaleCurves: []
  m_FloatCurves: []
  m_PPtrCurves:
  - curve:
    - time: 0
      value: {fileID: 5273435066344140371, guid: d4fe06d01a45699419cab7c782e99aad, type: 3}
    - time: 0.1
      value: {fileID: 1635109571753499329, guid: e3b120eba11031a49ab0b4298f7da68f, type: 3}
    - time: 0.2
      value: {fileID: -6163471535511723116, guid: 6ff104412e2d92f4c962ce46890001c4, type: 3}
    - time: 0.3
      value: {fileID: 4644505652937295505, guid: e8c303199540bbb4dab52b577b5d362e, type: 3}
    - time: 0.4
      value: {fileID: 6312155835597419914, guid: d74f1840d2994e3479bf1711fff85313, type: 3}
    - time: 0.5
      value: {fileID: 8381436514013402264, guid: 2eb5cf0d80c1bcf4cb0341dfa0e1abb5, type: 3}
    attribute: m_Sprite
    path: 
    classID: 212
    script: {fileID: 0}
  m_SampleRate: 10
  m_WrapMode: 0
  m_Bounds:
    m_Center: {x: 0, y: 0, z: 0}
    m_Extent: {x: 0, y: 0, z: 0}
  m_ClipBindingConstant:
    genericBindings:
    - serializedVersion: 2
      path: 0
      attribute: 0
      script: {fileID: 0}
      typeID: 212
      customType: 23
      isPPtrCurve: 1
    pptrCurveMapping:
    - {fileID: 5273435066344140371, guid: d4fe06d01a45699419cab7c782e99aad, type: 3}
    - {fileID: 1635109571753499329, guid: e3b120eba11031a49ab0b4298f7da68f, type: 3}
    - {fileID: -6163471535511723116, guid: 6ff104412e2d92f4c962ce46890001c4, type: 3}
    - {fileID: 4644505652937295505, guid: e8c303199540bbb4dab52b577b5d362e, type: 3}
    - {fileID: 6312155835597419914, guid: d74f1840d2994e3479bf1711fff85313, type: 3}
    - {fileID: 8381436514013402264, guid: 2eb5cf0d80c1bcf4cb0341dfa0e1abb5, type: 3}
  m_AnimationClipSettings:
    serializedVersion: 2
    m_AdditiveReferencePoseClip: {fileID: 0}
    m_AdditiveReferencePoseTime: 0
    m_StartTime: 0
    m_StopTime: 0.6
    m_OrientationOffsetY: 0
    m_Level: 0
    m_CycleOffset: 0
    m_HasAdditiveReferencePose: 0
    m_LoopTime: 1
    m_LoopBlend: 0
    m_LoopBlendOrientation: 0
    m_LoopBlendPositionY: 0
    m_LoopBlendPositionXZ: 0
    m_KeepOriginalOrientation: 0
    m_KeepOriginalPositionY: 1
    m_KeepOriginalPositionXZ: 0
    m_HeightFromFeet: 0
    m_Mirror: 0
  m_EditorCurves: []
  m_EulerEditorCurves: []
  m_HasGenericRootTransform: 0
  m_HasMotionFloatCurves: 0
  m_Events: []
